<svg width="27" height="37" viewBox="0 0 27 37" fill="none" xmlns="http://www.w3.org/2000/svg">
<path d="M4.91275 36.5722C3.03902 36.5722 2.22673 36.694 0.94052 35.3341C-0.34569 33.9742 0.0610533 33.3634 0.0610533 31.3823L0.0610571 5.20774C0.0610571 3.26028 -0.169803 2.67914 1.11641 1.30248C2.40262 -0.0741763 3.03902 0.000721269 4.91275 0.000721269L26.9725 0.000728584V28.4534C26.1468 28.4534 25.4017 28.6096 24.8618 29.1972C24.3219 29.7848 24.1582 30.5894 24.1582 31.4288C24.1582 32.3018 24.3219 33.0896 24.8618 33.6604C25.4017 34.2312 26.1468 34.4043 26.9725 34.4043L26.9725 36.5722H4.91275ZM4.91275 34.4043L22.5752 34.4043C22.3847 33.9342 22.3401 33.4557 22.2289 32.9688C22.1178 32.482 22.0622 31.9531 22.0622 31.3823C22.0622 30.8451 22.1098 30.3247 22.2051 29.821C22.3004 29.3173 22.4592 28.8305 22.6815 28.3604H4.91275C4.08704 28.3604 3.40424 28.6542 2.86435 29.2418C2.32446 29.8294 2.05451 30.5429 2.05451 31.3823C2.05451 32.2553 2.32446 32.9772 2.86435 33.548C3.40424 34.1189 4.08704 34.4043 4.91275 34.4043ZM2.05451 26.7952C2.49913 26.5602 2.94251 26.1366 3.40301 26.0358C3.8635 25.9351 4.09436 25.8654 4.63425 25.8654L24.9204 26.1705V2.18582H4.91275C4.08704 2.18582 3.40424 2.47962 2.86435 3.06721C2.32446 3.65481 2.05451 4.36832 2.05451 5.20775V26.7952Z" fill="#9E6E3D"/>
<path d="M2.05451 26.7952C2.49913 26.5602 2.94251 26.1366 3.40301 26.0358C3.8635 25.9351 4.09436 25.8654 4.63425 25.8654L24.9204 26.1705V2.18582H4.91275C4.08704 2.18582 3.40424 2.47962 2.86435 3.06721C2.32446 3.65481 2.05451 4.36832 2.05451 5.20775V26.7952Z" fill="#F4EAE3"/>
<path d="M4.91275 34.4043L22.5752 34.4043C22.3847 33.9342 22.3401 33.4557 22.2289 32.9688C22.1178 32.482 22.0622 31.9531 22.0622 31.3823C22.0622 30.8451 22.1098 30.3247 22.2051 29.821C22.3004 29.3173 22.4592 28.8305 22.6815 28.3604H4.91275C4.08704 28.3604 3.40424 28.6542 2.86435 29.2418C2.32446 29.8294 2.05451 30.5429 2.05451 31.3823C2.05451 32.2553 2.32446 32.9772 2.86435 33.548C3.40424 34.1189 4.08704 34.4043 4.91275 34.4043Z" fill="#F4EAE3"/>
<path d="M23.4421 16.6484C23.4108 16.7266 23.3717 16.7969 23.3249 16.8594C23.2936 16.9219 23.2311 16.9609 23.1374 16.9766C23.153 17.0391 23.1608 17.125 23.1608 17.2344C23.1608 17.3281 23.1999 17.4062 23.278 17.4687C23.2311 17.5625 23.2077 17.6328 23.2077 17.6797C23.2233 17.7266 23.2077 17.7812 23.1608 17.8437C23.1764 18.0156 23.2311 18.1406 23.3249 18.2187C23.3405 18.2969 23.3327 18.3594 23.3014 18.4062C23.2702 18.4375 23.2389 18.4844 23.2077 18.5469C23.1608 18.8437 23.1374 19.0781 23.1374 19.25C23.153 19.4062 23.1374 19.5703 23.0905 19.7422C23.0592 19.8203 23.028 19.8984 22.9967 19.9766C22.9655 20.0391 22.9421 20.1094 22.9264 20.1875C22.9889 20.2969 23.0046 20.3594 22.9733 20.375C22.9577 20.3906 22.9577 20.4141 22.9733 20.4453C22.8014 20.5547 22.7233 20.6172 22.7389 20.6328C22.7702 20.6328 22.7702 20.6484 22.7389 20.6797C22.5671 20.7578 22.4342 20.8672 22.3405 21.0078C22.2467 21.1484 22.1139 21.2578 21.9421 21.3359C21.7077 21.5547 21.4655 21.7656 21.2155 21.9687C20.9811 22.1719 20.7155 22.3594 20.4186 22.5312C20.403 22.5937 20.3639 22.625 20.3014 22.625C20.2389 22.625 20.1999 22.6641 20.1842 22.7422C19.9811 22.7891 19.7624 22.8594 19.528 22.9531C19.2936 23.0312 19.0514 23.1016 18.8014 23.1641C18.5514 23.2266 18.2936 23.2656 18.028 23.2812C17.778 23.3125 17.5358 23.2891 17.3014 23.2109C16.9108 23.2578 16.4967 23.2734 16.0592 23.2578C15.6217 23.2578 15.192 23.2422 14.7702 23.2109C14.692 23.1953 14.6061 23.1719 14.5124 23.1406C14.4186 23.1094 14.3327 23.1016 14.2545 23.1172C14.1452 23.1328 14.0514 23.1328 13.9733 23.1172C13.8952 23.1172 13.7936 23.1094 13.6686 23.0937C13.4967 23.0781 13.3092 23.0859 13.1061 23.1172C12.9186 23.1641 12.7233 23.1875 12.5202 23.1875C12.442 23.1719 12.3717 23.1562 12.3092 23.1406C12.2467 23.125 12.1842 23.1172 12.1217 23.1172C11.9967 23.1328 11.8874 23.1641 11.7936 23.2109C11.7155 23.2578 11.6139 23.2266 11.4889 23.1172C11.2389 23.2422 10.9342 23.2891 10.5749 23.2578C10.2311 23.2266 9.89517 23.2422 9.56705 23.3047C9.48892 23.2891 9.41861 23.2734 9.35611 23.2578C9.30924 23.2578 9.25455 23.2734 9.19205 23.3047C9.14517 23.2422 9.09049 23.2109 9.02799 23.2109C8.98111 23.2266 8.92642 23.2187 8.86392 23.1875C8.73892 23.2031 8.5983 23.2266 8.44205 23.2578C8.2858 23.3047 8.16861 23.3203 8.09049 23.3047C7.98111 23.3047 7.9108 23.2969 7.87955 23.2812C7.86392 23.2812 7.8483 23.2812 7.83267 23.2812C7.69205 23.3125 7.56705 23.3594 7.45767 23.4219C7.3483 23.5 7.23111 23.5312 7.10611 23.5156C6.98111 23.4844 6.8483 23.4453 6.70767 23.3984C6.56705 23.3672 6.43424 23.4141 6.30924 23.5391C6.26236 23.4922 6.18424 23.4687 6.07486 23.4687C5.98111 23.4687 5.87955 23.4609 5.77017 23.4453C5.6608 23.4453 5.55924 23.4297 5.46549 23.3984C5.38736 23.3672 5.3483 23.3047 5.3483 23.2109C5.36392 23.0703 5.45767 22.9844 5.62955 22.9531C5.81705 22.9219 5.96549 22.9219 6.07486 22.9531C6.15299 22.9531 6.25455 22.9531 6.37955 22.9531C6.52017 22.9531 6.63736 22.9375 6.73111 22.9062C6.90299 22.875 7.07486 22.8828 7.24674 22.9297C7.41861 22.9766 7.55142 22.9844 7.64517 22.9531C7.81705 22.9062 7.93424 22.8281 7.99674 22.7187C8.05924 22.5937 8.14517 22.4844 8.25455 22.3906C8.25455 22.2969 8.27799 22.2109 8.32486 22.1328C8.37174 22.0547 8.4108 21.9844 8.44205 21.9219C8.48892 21.8437 8.51236 21.7656 8.51236 21.6875C8.52799 21.5937 8.50455 21.4922 8.44205 21.3828C8.5358 21.2109 8.56705 21.0312 8.5358 20.8437C8.50455 20.6406 8.48892 20.4297 8.48892 20.2109C8.3483 20.1797 8.27017 20.0859 8.25455 19.9297C8.25455 19.7734 8.34049 19.6797 8.51236 19.6484C8.54361 19.5234 8.54361 19.3984 8.51236 19.2734C8.49674 19.1484 8.49674 19.0234 8.51236 18.8984C8.43424 18.8672 8.37955 18.8203 8.3483 18.7578C8.31705 18.6797 8.2858 18.6094 8.25455 18.5469C8.27017 18.4687 8.30142 18.4141 8.3483 18.3828C8.4108 18.3359 8.45767 18.2734 8.48892 18.1953C8.45767 18.1016 8.39517 18.0703 8.30142 18.1016C8.2233 18.1328 8.1608 18.1641 8.11392 18.1953C8.08267 18.1641 8.04361 18.1328 7.99674 18.1016C7.96549 18.0703 7.95767 18.0156 7.9733 17.9375C8.06705 17.8437 8.15299 17.7578 8.23111 17.6797C8.30924 17.6016 8.38736 17.5234 8.46549 17.4453C8.48111 17.2734 8.49674 17.125 8.51236 17C8.54361 16.8594 8.5358 16.7266 8.48892 16.6016C8.56705 16.3672 8.57486 16.1719 8.51236 16.0156C8.48111 15.9687 8.43424 15.9375 8.37174 15.9219C8.30924 15.8906 8.26236 15.8516 8.23111 15.8047C8.26236 15.7109 8.2858 15.625 8.30142 15.5469C8.31705 15.4531 8.37174 15.3828 8.46549 15.3359C8.48111 15.1328 8.49674 14.8984 8.51236 14.6328C8.52799 14.3672 8.48111 14.1328 8.37174 13.9297C8.40299 13.6797 8.44205 13.4844 8.48892 13.3437C8.5358 13.2031 8.56705 13.0625 8.58267 12.9219C8.56705 12.875 8.52799 12.8437 8.46549 12.8281C8.41861 12.8125 8.37955 12.7891 8.3483 12.7578C8.3483 12.6797 8.37174 12.6094 8.41861 12.5469C8.46549 12.4687 8.51236 12.3984 8.55924 12.3359C8.62174 12.2578 8.6608 12.1797 8.67642 12.1016C8.69205 12.0078 8.6608 11.9062 8.58267 11.7969C8.55142 11.5469 8.55142 11.3828 8.58267 11.3047C8.62955 11.2109 8.69205 11.125 8.77017 11.0469C8.73892 10.9219 8.68424 10.8594 8.60611 10.8594C8.54361 10.8594 8.51236 10.8047 8.51236 10.6953C8.51236 10.6172 8.55142 10.5547 8.62955 10.5078C8.7233 10.4453 8.79361 10.375 8.84049 10.2969C8.87174 10.25 8.87955 10.1875 8.86392 10.1094C8.8483 10.0156 8.83267 9.92968 8.81705 9.85156C8.89517 9.61718 8.91861 9.38281 8.88736 9.14843C8.85611 8.89843 8.81705 8.64843 8.77017 8.39843C8.69205 8.41406 8.62174 8.44531 8.55924 8.49218C8.49674 8.53906 8.43424 8.58593 8.37174 8.63281C8.30924 8.66406 8.24674 8.6875 8.18424 8.70312C8.12174 8.71875 8.05142 8.70312 7.9733 8.65625C7.98892 8.51562 8.05142 8.41406 8.1608 8.35156C8.27017 8.28906 8.37955 8.22656 8.48892 8.16406C8.5983 8.08593 8.68424 7.99999 8.74674 7.90624C8.80924 7.81249 8.80142 7.67187 8.7233 7.48437C8.62955 7.56249 8.5358 7.63281 8.44205 7.69531C8.36392 7.75781 8.23892 7.77343 8.06705 7.74218C8.0983 7.55468 8.18424 7.42968 8.32486 7.36718C8.46549 7.28906 8.5983 7.21093 8.7233 7.13281C8.70767 7.05468 8.68424 6.97656 8.65299 6.89843C8.63736 6.82031 8.64517 6.74218 8.67642 6.66406C8.50455 6.52343 8.44986 6.43749 8.51236 6.40624C8.57486 6.37499 8.5983 6.32031 8.58267 6.24218C8.33267 6.03906 8.07486 5.92187 7.80924 5.89062C7.54361 5.85937 7.32486 5.86718 7.15299 5.91406C6.99674 5.86718 6.80924 5.85156 6.59049 5.86718C6.38736 5.88281 6.19986 5.85156 6.02799 5.77343C5.88736 5.85156 5.76236 5.86718 5.65299 5.82031C5.54361 5.75781 5.42642 5.72656 5.30142 5.72656C5.2858 5.64843 5.2858 5.59374 5.30142 5.56249C5.33267 5.53124 5.35611 5.49218 5.37174 5.44531C5.62174 5.46093 5.87174 5.46093 6.12174 5.44531C6.37174 5.41406 6.63736 5.41406 6.91861 5.44531C7.13736 5.47656 7.34049 5.50781 7.52799 5.53906C7.73111 5.57031 7.92642 5.54687 8.11392 5.46874C8.55142 5.46874 8.98892 5.44531 9.42642 5.39843C9.87955 5.35156 10.3092 5.34374 10.7155 5.37499C10.8092 5.37499 10.903 5.35937 10.9967 5.32812C11.0905 5.29687 11.1842 5.28124 11.278 5.28124C11.3561 5.28124 11.4264 5.29687 11.4889 5.32812C11.5514 5.35937 11.6217 5.38281 11.6999 5.39843C11.8405 5.41406 11.9811 5.41406 12.1217 5.39843C12.2624 5.38281 12.403 5.37499 12.5436 5.37499C12.8092 5.37499 13.0436 5.40624 13.2467 5.46874C13.4655 5.53124 13.6764 5.51562 13.8795 5.42187C13.9577 5.45312 14.0514 5.47656 14.1608 5.49218C14.2702 5.50781 14.3639 5.49218 14.442 5.44531C14.567 5.50781 14.6999 5.53124 14.8405 5.51562C14.9967 5.48437 15.1452 5.46093 15.2858 5.44531C15.442 5.52343 15.6608 5.57031 15.942 5.58593C16.2389 5.58593 16.4733 5.57812 16.6452 5.56249C16.9108 5.62499 17.1842 5.67968 17.4655 5.72656C17.7467 5.75781 18.0436 5.78906 18.3561 5.82031C18.3874 5.85156 18.4186 5.88281 18.4499 5.91406C18.4811 5.94531 18.5124 5.97656 18.5436 6.00781C18.778 5.94531 18.9811 5.96874 19.153 6.07812C19.3405 6.18749 19.5514 6.22656 19.7858 6.19531C19.9264 6.28906 20.0514 6.40624 20.1608 6.54687C20.2702 6.68749 20.4186 6.78124 20.6061 6.82812C20.6686 6.79687 20.7077 6.78124 20.7233 6.78124C20.7389 6.76562 20.7858 6.74999 20.8639 6.73437C20.9889 6.76562 21.0671 6.82031 21.0983 6.89843C21.1452 6.96093 21.1842 7.02343 21.2155 7.08593C21.1374 7.10156 21.0749 7.12499 21.028 7.15624C20.9967 7.18749 20.9499 7.21874 20.8874 7.24999C21.0436 7.40624 21.153 7.50781 21.2155 7.55468C21.278 7.60156 21.3014 7.70312 21.2858 7.85937C21.3952 7.93749 21.5124 7.97656 21.6374 7.97656C21.6999 8.07031 21.7077 8.13281 21.6608 8.16406C21.6139 8.17968 21.5671 8.19531 21.5202 8.21093C21.6608 8.28906 21.7233 8.29687 21.7077 8.23437C21.7077 8.15625 21.7467 8.10937 21.8249 8.09375C21.8561 8.01562 21.8952 8.01562 21.9421 8.09375C21.9889 8.17187 22.0749 8.20312 22.1999 8.1875C22.1842 8.26562 22.1686 8.35156 22.153 8.44531C22.1374 8.52343 22.0905 8.58593 22.0124 8.63281C21.9342 8.69531 21.8717 8.72656 21.8249 8.72656C21.7936 8.72656 21.7936 8.75781 21.8249 8.82031C21.9811 8.92968 22.0202 9.10937 21.9421 9.35937C22.0671 9.4375 22.1061 9.53906 22.0592 9.66406C22.0124 9.77343 22.0046 9.88281 22.0358 9.99218C22.0358 10.0234 22.028 10.0703 22.0124 10.1328C21.9967 10.1953 21.9889 10.2734 21.9889 10.3672C21.9889 10.4453 21.9889 10.5312 21.9889 10.625C21.9889 10.7187 21.9733 10.7969 21.9421 10.8594C21.9264 10.8906 21.903 10.9375 21.8717 11C21.8405 11.0625 21.8171 11.1328 21.8014 11.2109C21.7858 11.2734 21.7858 11.3359 21.8014 11.3984C21.8171 11.4609 21.8639 11.5078 21.9421 11.5391C21.8796 11.6797 21.8249 11.7578 21.778 11.7734C21.7311 11.7891 21.7077 11.8359 21.7077 11.9141C21.5983 11.8828 21.5202 11.9062 21.4733 11.9844C21.4264 12.0625 21.3405 12.0937 21.2155 12.0781C21.1217 12.1719 21.0671 12.25 21.0514 12.3125C21.0514 12.3594 21.028 12.3594 20.9811 12.3125C20.6842 12.5312 20.4421 12.7031 20.2546 12.8281C20.0827 12.9531 19.8874 13.0781 19.6686 13.2031C19.4967 13.2344 19.3014 13.25 19.0827 13.25C18.8796 13.2344 18.6999 13.2812 18.5436 13.3906C18.278 13.5469 18.0827 13.6641 17.9577 13.7422C18.0358 13.7734 18.1374 13.8047 18.2624 13.8359C18.3874 13.8516 18.5124 13.875 18.6374 13.9062C18.7624 13.9219 18.8717 13.9062 18.9655 13.8594C19.0592 13.7969 19.1608 13.7812 19.2702 13.8125C19.3639 13.9531 19.4577 14 19.5514 13.9531C19.6452 13.8906 19.7546 13.875 19.8796 13.9062C19.9108 13.9844 19.8952 14.0391 19.8327 14.0703C19.7858 14.0859 19.7624 14.125 19.7624 14.1875C19.8405 14.2812 19.9421 14.3437 20.0671 14.375C20.2077 14.4062 20.3405 14.4375 20.4655 14.4687C20.6061 14.5 20.7389 14.5391 20.8639 14.5859C20.9889 14.6328 21.0827 14.7031 21.1452 14.7969C21.2233 14.75 21.2858 14.75 21.3327 14.7969C21.3796 14.8281 21.4342 14.8281 21.4967 14.7969C21.528 14.9219 21.6061 15 21.7311 15.0312C21.8561 15.0625 21.9811 15.0937 22.1061 15.125C22.1061 15.2812 22.1452 15.4141 22.2233 15.5234C22.3171 15.6328 22.4186 15.7344 22.528 15.8281C22.6374 15.9219 22.7311 16.0234 22.8092 16.1328C22.8874 16.2422 22.9264 16.375 22.9264 16.5312C23.0671 16.6562 23.2233 16.6797 23.3952 16.6016L23.4421 16.6484ZM20.3483 7.20312C20.2858 7.17187 20.2311 7.15624 20.1842 7.15624C20.1374 7.15624 20.0749 7.16406 19.9967 7.17968C19.8092 7.28906 19.6764 7.35156 19.5983 7.36718C19.5358 7.36718 19.4889 7.42968 19.4577 7.55468C19.3327 7.61718 19.2311 7.66406 19.153 7.69531C19.0749 7.72656 19.0202 7.78124 18.9889 7.85937C19.2233 7.84374 19.3874 7.80468 19.4811 7.74218C19.5905 7.66406 19.7233 7.60937 19.8796 7.57812C19.8796 7.48437 19.9264 7.43749 20.0202 7.43749C20.1296 7.42187 20.2233 7.39062 20.3014 7.34374L20.3483 7.20312ZM21.3327 8.53906C21.3014 8.42968 21.2546 8.36718 21.1921 8.35156C21.1296 8.33593 21.0514 8.33593 20.9577 8.35156C20.8796 8.35156 20.8014 8.36718 20.7233 8.39843C20.6452 8.41406 20.5749 8.39843 20.5124 8.35156C20.4499 8.39843 20.3874 8.42187 20.3249 8.42187C20.278 8.40625 20.2311 8.4375 20.1842 8.51562C20.1842 8.59375 20.1452 8.64843 20.0671 8.67968C19.9889 8.71093 19.9342 8.71875 19.903 8.70312C19.903 8.64062 19.9342 8.59375 19.9967 8.5625C20.0592 8.51562 20.0436 8.46093 19.9499 8.39843C19.9967 8.28906 20.0358 8.22656 20.0671 8.21093C20.1139 8.17968 20.1139 8.14062 20.0671 8.09375C20.1139 8.09375 20.1452 8.04687 20.1608 7.95312C20.1764 7.85937 20.1686 7.80468 20.1374 7.78906C20.0749 7.82031 20.0046 7.85156 19.9264 7.88281C19.8639 7.91406 19.8171 7.96875 19.7858 8.04687C19.7546 8.03125 19.7077 8.02343 19.6452 8.02343C19.5983 8.00781 19.5592 8.01562 19.528 8.04687C19.4655 8.15625 19.3952 8.23437 19.3171 8.28125C19.2546 8.3125 19.1999 8.35937 19.153 8.42187C19.3092 8.35937 19.4342 8.33593 19.528 8.35156C19.5124 8.27343 19.5436 8.22656 19.6217 8.21093C19.6999 8.17968 19.7546 8.16406 19.7858 8.16406C19.6452 8.27343 19.5592 8.35156 19.528 8.39843C19.4967 8.44531 19.4421 8.48437 19.3639 8.51562C19.4264 8.51562 19.4733 8.51562 19.5046 8.51562C19.5514 8.51562 19.6139 8.52343 19.6921 8.53906C19.8014 8.61718 19.8092 8.67968 19.7155 8.72656C19.6374 8.75781 19.5358 8.79687 19.4108 8.84375C19.4421 8.9375 19.4264 9 19.3639 9.03125C19.3171 9.04687 19.2702 9.07031 19.2233 9.10156C19.2389 9.14843 19.2546 9.19531 19.2702 9.24218C19.3014 9.27343 19.3092 9.32031 19.2936 9.38281C19.403 9.41406 19.4733 9.40625 19.5046 9.35937C19.5358 9.3125 19.5983 9.28906 19.6921 9.28906C19.9577 9.17968 20.1686 9.07031 20.3249 8.96093C20.4967 8.83593 20.6921 8.78125 20.9108 8.79687L21.2389 8.65625L21.3327 8.53906ZM21.7077 10.0859C21.6139 10.1641 21.4889 10.2109 21.3327 10.2266C21.1764 10.2266 21.0749 10.2891 21.028 10.4141C20.8092 10.4922 20.6608 10.5859 20.5827 10.6953C20.5046 10.7891 20.403 10.8203 20.278 10.7891C20.3092 10.9141 20.3717 10.9687 20.4655 10.9531C20.5592 10.9219 20.653 10.8906 20.7467 10.8594C20.8561 10.8125 20.9577 10.7891 21.0514 10.7891C21.1452 10.7891 21.2077 10.8672 21.2389 11.0234C21.2233 11.1641 21.1921 11.25 21.1452 11.2812C21.1139 11.2969 21.0983 11.3437 21.0983 11.4219C21.2389 11.4062 21.3092 11.3672 21.3092 11.3047C21.3249 11.2422 21.3796 11.2266 21.4733 11.2578C21.5514 11.1172 21.6217 10.9375 21.6842 10.7187C21.7624 10.4844 21.7702 10.2734 21.7077 10.0859ZM21.0046 9.96875C20.8796 9.90625 20.7702 9.90625 20.6764 9.96875C20.5827 10.0156 20.4889 10.0234 20.3952 9.99218C20.2233 10.0703 20.153 10.1172 20.1842 10.1328C20.2155 10.1328 20.2311 10.1562 20.2311 10.2031C20.1842 10.2344 20.1374 10.2656 20.0905 10.2969C20.0592 10.3281 20.0046 10.3281 19.9264 10.2969C19.7546 10.4687 19.5671 10.5859 19.3639 10.6484L19.5514 10.8594C19.6452 10.875 19.7233 10.8594 19.7858 10.8125C19.8483 10.75 19.9186 10.7344 19.9967 10.7656C20.028 10.6406 20.0671 10.5547 20.1139 10.5078C20.1764 10.4453 20.2702 10.4219 20.3952 10.4375C20.3952 10.375 20.4186 10.3437 20.4655 10.3437C20.5124 10.3437 20.5514 10.3125 20.5827 10.25C20.5983 10.2344 20.6217 10.2187 20.653 10.2031C20.6999 10.1719 20.7467 10.1484 20.7936 10.1328C20.8405 10.1172 20.8874 10.1016 20.9342 10.0859C20.9811 10.0703 21.0046 10.0312 21.0046 9.96875ZM21.028 11.7031C20.8874 11.7031 20.7858 11.7344 20.7233 11.7969C20.6764 11.8594 20.5671 11.875 20.3952 11.8437C20.3171 11.9531 20.2311 12.0547 20.1374 12.1484C20.0436 12.2422 19.8952 12.2734 19.6921 12.2422C19.7077 12.3047 19.6999 12.3437 19.6686 12.3594C19.653 12.375 19.6217 12.3906 19.5749 12.4062C19.5436 12.4062 19.5124 12.4141 19.4811 12.4297C19.4655 12.4453 19.4577 12.4844 19.4577 12.5469C19.7233 12.4062 19.9967 12.2812 20.278 12.1719C20.5592 12.0625 20.8092 11.9062 21.028 11.7031ZM12.7077 5.72656C12.6608 5.74218 12.5905 5.74218 12.4967 5.72656C12.403 5.69531 12.317 5.69531 12.2389 5.72656C12.2702 5.77343 12.3249 5.79687 12.403 5.79687C12.4811 5.78124 12.528 5.80468 12.5436 5.86718L12.7077 5.72656ZM19.4342 12.5703C19.3717 12.5859 19.3249 12.5781 19.2936 12.5469C19.2624 12.5 19.2155 12.4766 19.153 12.4766C19.0905 12.4766 19.028 12.4844 18.9655 12.5C18.903 12.5156 18.8405 12.5391 18.778 12.5703C18.7311 12.6641 18.6686 12.7344 18.5905 12.7812C18.528 12.8125 18.4889 12.875 18.4733 12.9687C18.6296 13.0156 18.778 13.0156 18.9186 12.9687C19.0749 12.9062 19.2389 12.8672 19.4108 12.8516C19.4421 12.7891 19.4499 12.7422 19.4342 12.7109C19.4186 12.6641 19.4186 12.6172 19.4342 12.5703ZM21.8483 15.6875C21.8327 15.6094 21.7858 15.5937 21.7077 15.6406C21.6296 15.6875 21.5749 15.7266 21.5436 15.7578C21.5905 15.7266 21.6374 15.7187 21.6842 15.7344C21.7467 15.7344 21.8014 15.7187 21.8483 15.6875ZM19.0827 10.6484C19.0046 10.5859 18.9577 10.5 18.9421 10.3906C18.9264 10.2656 18.9733 10.1641 19.0827 10.0859C19.0514 10.0078 19.0046 9.95312 18.9421 9.92187C18.8952 9.89062 18.8717 9.83593 18.8717 9.75781C18.9499 9.69531 18.9967 9.60937 19.0124 9.5C19.0436 9.375 19.0202 9.26562 18.9421 9.17187C18.9108 9.21875 18.8639 9.22656 18.8014 9.19531C18.7389 9.16406 18.6764 9.15625 18.6139 9.17187C18.5202 9.07812 18.4577 9.03125 18.4264 9.03125C18.3952 9.01562 18.3874 8.97656 18.403 8.91406C18.4342 8.88281 18.4733 8.85937 18.5202 8.84375C18.5671 8.82812 18.6061 8.80468 18.6374 8.77343C18.6999 8.72656 18.7467 8.67968 18.778 8.63281C18.8249 8.58593 18.8717 8.54687 18.9186 8.51562C18.8405 8.46875 18.7546 8.45312 18.6608 8.46875C18.5827 8.48437 18.528 8.45312 18.4967 8.375C18.5592 8.23437 18.6296 8.13281 18.7077 8.07031C18.8014 8.00781 18.8092 7.91406 18.7311 7.78906C18.5436 7.74218 18.4421 7.67187 18.4264 7.57812C18.4108 7.46874 18.403 7.37499 18.403 7.29687C18.3092 7.20312 18.2077 7.11718 18.0983 7.03906C18.0046 6.94531 17.9186 6.84374 17.8405 6.73437C17.6999 6.76562 17.5671 6.76562 17.4421 6.73437C17.3171 6.70312 17.2467 6.61718 17.2311 6.47656C17.1374 6.47656 17.0592 6.46093 16.9967 6.42968C16.9499 6.38281 16.8717 6.35937 16.7624 6.35937C16.7467 6.15624 16.6608 6.05468 16.5046 6.05468C16.3483 6.03906 16.1921 6.03124 16.0358 6.03124C15.8952 6.03124 15.7624 6.02343 15.6374 6.00781C15.528 5.97656 15.4655 5.91406 15.4499 5.82031C15.0905 5.82031 14.8014 5.82812 14.5827 5.84374C14.3639 5.84374 14.0827 5.82812 13.7389 5.79687C13.5514 5.87499 13.3952 5.90624 13.2702 5.89062C13.1608 5.85937 13.028 5.86718 12.8717 5.91406C12.903 5.97656 12.9108 6.02343 12.8952 6.05468C12.8795 6.08593 12.8561 6.11718 12.8249 6.14843C12.7936 6.17968 12.7545 6.21093 12.7077 6.24218C12.6764 6.27343 12.653 6.31249 12.6374 6.35937C12.8561 6.35937 13.0124 6.39843 13.1061 6.47656C13.0749 6.58593 13.0202 6.67187 12.942 6.73437C12.8795 6.78124 12.8014 6.82812 12.7077 6.87499C12.6295 6.92187 12.5592 6.97656 12.4967 7.03906C12.4342 7.10156 12.3952 7.18749 12.3795 7.29687C12.4108 7.32812 12.4499 7.35156 12.4967 7.36718C12.5592 7.36718 12.6061 7.38281 12.6374 7.41406C12.6217 7.52343 12.5749 7.60937 12.4967 7.67187C12.4186 7.73437 12.3639 7.81249 12.3327 7.90624C12.3014 8.03124 12.3014 8.15625 12.3327 8.28125C12.3639 8.40625 12.3795 8.53125 12.3795 8.65625C12.5827 8.6875 12.7155 8.75 12.778 8.84375C12.7467 8.92187 12.6999 8.99218 12.6374 9.05468C12.5905 9.11718 12.5514 9.1875 12.5202 9.26562C12.5827 9.39062 12.6139 9.49218 12.6139 9.57031C12.6295 9.64843 12.5983 9.67187 12.5202 9.64062C12.4889 9.78125 12.4733 9.89062 12.4733 9.96875C12.4889 10.0312 12.528 10.1094 12.5905 10.2031C12.6061 10.4062 12.6374 10.5078 12.6842 10.5078C12.7467 10.4922 12.8014 10.5234 12.8483 10.6016C12.7858 10.6328 12.7467 10.6719 12.7311 10.7187C12.7155 10.7656 12.692 10.8047 12.6608 10.8359C12.692 10.8828 12.7389 10.9141 12.8014 10.9297C12.8639 10.9297 12.9108 10.9531 12.942 11C12.9108 11.1562 12.8483 11.2891 12.7545 11.3984C12.6608 11.5078 12.5514 11.6016 12.4264 11.6797C12.4733 11.7266 12.4889 11.7656 12.4733 11.7969C12.4577 11.8281 12.4342 11.875 12.403 11.9375C12.4499 11.9687 12.4811 12.0078 12.4967 12.0547C12.528 12.1016 12.5749 12.1406 12.6374 12.1719C12.6061 12.25 12.567 12.3125 12.5202 12.3594C12.4733 12.3906 12.4499 12.4609 12.4499 12.5703C12.5436 12.7891 12.567 12.9531 12.5202 13.0625C12.4733 13.1562 12.4186 13.2656 12.3561 13.3906C12.4186 13.4844 12.4577 13.5469 12.4733 13.5781C12.4889 13.6094 12.5202 13.6328 12.567 13.6484C12.9889 13.5391 13.3795 13.5 13.7389 13.5312C14.1139 13.5625 14.4889 13.5391 14.8639 13.4609C15.1139 13.5703 15.3561 13.6016 15.5905 13.5547C15.8405 13.5078 16.1217 13.5 16.4342 13.5312C16.4811 13.4687 16.5514 13.4375 16.6452 13.4375C16.7389 13.4375 16.8405 13.4297 16.9499 13.4141C17.1217 13.3359 17.278 13.2578 17.4186 13.1797C17.5749 13.1016 17.7624 13.0469 17.9811 13.0156C18.0592 12.8437 18.1764 12.6875 18.3327 12.5469C18.4889 12.3906 18.5827 12.2031 18.6139 11.9844C18.5358 11.9844 18.4577 11.9297 18.3796 11.8203C18.3952 11.6797 18.4421 11.5703 18.5202 11.4922C18.5983 11.4141 18.6764 11.3437 18.7546 11.2812C18.8483 11.2031 18.9264 11.1172 18.9889 11.0234C19.0514 10.9297 19.0827 10.8047 19.0827 10.6484ZM22.2702 16.0625C22.1921 16 22.1139 16 22.0358 16.0625C21.9577 16.125 21.8874 16.1797 21.8249 16.2266C21.8874 16.2266 21.9733 16.2187 22.0827 16.2031C22.1921 16.1875 22.2546 16.1406 22.2702 16.0625ZM21.5202 15.7578C21.4421 15.7109 21.3796 15.7187 21.3327 15.7812C21.2858 15.8437 21.2233 15.8828 21.1452 15.8984C21.2233 15.8828 21.2858 15.8672 21.3327 15.8516C21.3952 15.8203 21.4577 15.7891 21.5202 15.7578ZM11.5592 5.72656C11.4499 5.69531 11.3405 5.69531 11.2311 5.72656C11.1217 5.75781 11.0514 5.82031 11.0202 5.91406C11.1295 5.89843 11.2311 5.88281 11.3249 5.86718C11.4342 5.85156 11.5124 5.80468 11.5592 5.72656ZM20.3249 15.125C20.2624 15.1094 20.1842 15.1328 20.0905 15.1953C20.0124 15.2422 19.9499 15.2891 19.903 15.3359C19.9811 15.3047 20.0592 15.2812 20.1374 15.2656C20.2155 15.2344 20.278 15.1875 20.3249 15.125ZM20.7467 15.2656C20.6842 15.2187 20.6217 15.2109 20.5592 15.2422C20.4967 15.2578 20.4342 15.2891 20.3717 15.3359C20.3092 15.3828 20.2389 15.4297 20.1608 15.4766C20.0827 15.5078 20.0046 15.5234 19.9264 15.5234C19.9264 15.6016 19.8874 15.6484 19.8092 15.6641C19.7311 15.6797 19.653 15.6797 19.5749 15.6641C19.5749 15.7422 19.5358 15.7891 19.4577 15.8047C19.3796 15.8047 19.3483 15.8594 19.3639 15.9687C19.6139 15.8906 19.8405 15.7891 20.0436 15.6641C20.2467 15.5391 20.4655 15.4297 20.6999 15.3359L20.7467 15.2656ZM19.3874 14.5625C19.1217 14.5937 18.9186 14.6875 18.778 14.8437C18.903 14.7969 19.0124 14.7578 19.1061 14.7266C19.2155 14.6953 19.3092 14.6406 19.3874 14.5625ZM20.1374 14.8906C19.903 14.9219 19.7077 14.9922 19.5514 15.1016C19.3952 15.1953 19.2311 15.2812 19.0592 15.3594C19.1999 15.4687 19.2858 15.5 19.3171 15.4531C19.3483 15.4062 19.3796 15.3672 19.4108 15.3359C19.5358 15.2422 19.6686 15.1719 19.8092 15.125C19.9499 15.0781 20.0592 15 20.1374 14.8906ZM10.5983 5.93749C10.5202 5.90624 10.4342 5.92187 10.3405 5.98437C10.2624 6.04687 10.2311 6.10937 10.2467 6.17187C10.278 6.10937 10.3327 6.07812 10.4108 6.07812C10.5045 6.06249 10.567 6.01562 10.5983 5.93749ZM21.8952 16.0625C21.8014 15.9531 21.7233 15.9062 21.6608 15.9219C21.5983 15.9219 21.5358 15.9375 21.4733 15.9687C21.4264 15.9844 21.3717 16.0078 21.3092 16.0391C21.2624 16.0703 21.2077 16.0781 21.1452 16.0625C21.1139 16.1719 21.028 16.2266 20.8874 16.2266C20.6374 16.3672 20.4264 16.5 20.2546 16.625C20.0827 16.7344 19.9108 16.8516 19.7389 16.9766C19.9108 17.0078 20.0749 16.9687 20.2311 16.8594C20.403 16.7344 20.5671 16.6328 20.7233 16.5547C20.8014 16.5859 20.8796 16.5547 20.9577 16.4609C21.0358 16.3672 21.1217 16.3359 21.2155 16.3672C21.2936 16.2891 21.3952 16.2187 21.5202 16.1562C21.6608 16.0937 21.7858 16.0625 21.8952 16.0625ZM21.1217 15.5703C21.0436 15.5547 20.9733 15.5625 20.9108 15.5937C20.8639 15.625 20.8171 15.6562 20.7702 15.6875C20.7233 15.7187 20.6764 15.7422 20.6296 15.7578C20.5827 15.7734 20.5358 15.7656 20.4889 15.7344C20.4264 15.7969 20.3483 15.8516 20.2546 15.8984C20.1608 15.9297 20.0671 15.9687 19.9733 16.0156C19.8796 16.0625 19.7858 16.1172 19.6921 16.1797C19.6139 16.2266 19.5514 16.2969 19.5046 16.3906C19.7702 16.3906 19.9577 16.3359 20.0671 16.2266C20.1764 16.1016 20.3405 16.0312 20.5592 16.0156C20.6061 15.8906 20.6921 15.8125 20.8171 15.7812C20.9577 15.75 21.0592 15.6797 21.1217 15.5703ZM19.0358 14.3984C18.9421 14.3828 18.8405 14.4062 18.7311 14.4687C18.6217 14.5156 18.5358 14.5781 18.4733 14.6562C18.5983 14.6562 18.6999 14.6328 18.778 14.5859C18.8717 14.5391 18.9577 14.4766 19.0358 14.3984ZM9.98892 5.72656C9.92642 5.67968 9.8483 5.68749 9.75455 5.74999C9.67642 5.79687 9.65299 5.84374 9.68424 5.89062C9.69986 5.82812 9.74674 5.79687 9.82486 5.79687C9.90299 5.79687 9.95767 5.77343 9.98892 5.72656ZM22.2936 16.3672C22.153 16.3672 22.0124 16.3984 21.8717 16.4609C21.7467 16.5078 21.6139 16.5703 21.4733 16.6484C21.3327 16.7109 21.1921 16.7812 21.0514 16.8594C20.9108 16.9219 20.7624 16.9531 20.6061 16.9531C20.4342 17.0625 20.3014 17.1562 20.2077 17.2344C20.1139 17.2969 20.0046 17.3437 19.8796 17.375C19.8952 17.4687 19.8874 17.5469 19.8561 17.6094C19.8405 17.6562 19.8483 17.7031 19.8796 17.75C20.0046 17.7812 20.0905 17.7578 20.1374 17.6797C20.1999 17.6016 20.2467 17.5625 20.278 17.5625C20.5749 17.4219 20.8171 17.2734 21.0046 17.1172C21.2077 16.9609 21.4655 16.8516 21.778 16.7891C21.8249 16.7109 21.8717 16.6719 21.9186 16.6719C21.9811 16.6562 22.0436 16.6172 22.1061 16.5547C22.1842 16.4766 22.2389 16.4531 22.2702 16.4844C22.3014 16.5 22.3092 16.4609 22.2936 16.3672ZM11.7233 5.91406C11.5983 5.94531 11.4733 5.98437 11.3483 6.03124C11.2233 6.07812 11.0983 6.11718 10.9733 6.14843C10.9108 6.16406 10.8327 6.20312 10.7389 6.26562C10.6608 6.32812 10.5827 6.37499 10.5045 6.40624C10.3952 6.43749 10.2936 6.49999 10.1999 6.59374C10.1061 6.67187 10.0202 6.73437 9.94205 6.78124C9.7858 6.90624 9.62174 6.99218 9.44986 7.03906C9.27799 7.08593 9.15299 7.18749 9.07486 7.34374C9.09049 7.37499 9.10611 7.43749 9.12174 7.53124C9.13736 7.60937 9.13736 7.67187 9.12174 7.71874C9.19986 7.73437 9.24674 7.72656 9.26236 7.69531C9.29361 7.66406 9.32486 7.63281 9.35611 7.60156C9.37174 7.38281 9.42642 7.23437 9.52017 7.15624C9.62955 7.06249 9.77017 6.99999 9.94205 6.96874C10.1764 6.74999 10.4655 6.57031 10.8092 6.42968C11.153 6.28906 11.4577 6.11718 11.7233 5.91406ZM20.1374 16.3906C19.9811 16.5 19.8952 16.5625 19.8796 16.5781C19.9264 16.6094 19.9811 16.6094 20.0436 16.5781C20.1061 16.5312 20.1374 16.4687 20.1374 16.3906ZM10.153 6.19531C9.99674 6.27343 9.8483 6.33593 9.70767 6.38281C9.58267 6.42968 9.49674 6.51562 9.44986 6.64062C9.57486 6.59374 9.69986 6.53906 9.82486 6.47656C9.96549 6.39843 10.0749 6.30468 10.153 6.19531ZM12.0983 6.52343C11.8014 6.58593 11.528 6.67968 11.278 6.80468C11.0436 6.91406 10.817 7.03906 10.5983 7.17968C10.3795 7.32031 10.1608 7.46874 9.94205 7.62499C9.73892 7.76562 9.52017 7.89843 9.2858 8.02343C9.7858 7.82031 10.2389 7.59374 10.6452 7.34374C11.0514 7.09374 11.4733 6.85937 11.9108 6.64062L12.0983 6.52343ZM12.0045 8.58593C11.9577 8.61718 11.903 8.64843 11.8405 8.67968C11.7936 8.69531 11.7858 8.74218 11.817 8.82031C11.8952 8.83593 11.9655 8.82031 12.028 8.77343C12.0905 8.71093 12.0827 8.64843 12.0045 8.58593ZM22.8561 17.1641C22.5436 17.2578 22.2624 17.4141 22.0124 17.6328C22.0124 17.7422 21.9733 17.8203 21.8952 17.8672C21.8327 17.9141 21.7389 17.9062 21.6139 17.8437C21.4733 17.8281 21.3327 17.875 21.1921 17.9844C21.1921 17.8906 21.2389 17.8281 21.3327 17.7969C21.4264 17.7656 21.5046 17.7734 21.5671 17.8203C21.6921 17.6016 21.8796 17.4531 22.1296 17.375C22.3796 17.2969 22.5905 17.1797 22.7624 17.0234C22.653 16.9141 22.5827 16.8672 22.5514 16.8828C22.5358 16.8984 22.5124 16.8828 22.4811 16.8359L22.6686 16.6016C22.5749 16.5703 22.4889 16.5703 22.4108 16.6016C22.3483 16.6328 22.2858 16.6719 22.2233 16.7187C22.1764 16.75 22.1217 16.7812 22.0592 16.8125C22.0124 16.8437 21.9499 16.8359 21.8717 16.7891C21.8561 16.8359 21.8249 16.8828 21.778 16.9297C21.7467 16.9766 21.6921 16.9844 21.6139 16.9531C21.5983 17.0312 21.5514 17.0703 21.4733 17.0703C21.3952 17.0703 21.3171 17.0781 21.2389 17.0937C21.2077 17.2344 21.1296 17.3125 21.0046 17.3281C20.8796 17.3437 20.778 17.4141 20.6999 17.5391C20.6374 17.5703 20.5592 17.625 20.4655 17.7031C20.3874 17.7656 20.3327 17.8047 20.3014 17.8203C20.3639 17.8203 20.4264 17.8125 20.4889 17.7969C20.5514 17.7812 20.6061 17.7578 20.653 17.7266C20.5124 17.8359 20.3874 17.9375 20.278 18.0312C20.1686 18.125 20.0436 18.2109 19.903 18.2891C19.9342 18.4141 19.9655 18.5 19.9967 18.5469C20.1999 18.4531 20.3796 18.3516 20.5358 18.2422C20.7077 18.1172 20.903 18.0234 21.1217 17.9609C21.153 18.0078 21.1842 18.0469 21.2155 18.0781C21.2467 18.1094 21.2702 18.1641 21.2858 18.2422C21.2389 18.2266 21.1842 18.2187 21.1217 18.2187C21.0749 18.2031 21.0436 18.2266 21.028 18.2891C20.8561 18.2891 20.7624 18.2812 20.7467 18.2656C20.7467 18.2344 20.7311 18.2266 20.6999 18.2422C20.5749 18.4297 20.528 18.5234 20.5592 18.5234C20.6061 18.5078 20.6217 18.5234 20.6061 18.5703C20.528 18.6016 20.4733 18.6328 20.4421 18.6641C20.4108 18.6797 20.3483 18.6719 20.2546 18.6406C20.2546 18.7187 20.2233 18.7812 20.1608 18.8281C20.1139 18.8594 20.0592 18.8984 19.9967 18.9453C19.9499 18.9922 19.903 19.0469 19.8561 19.1094C19.8249 19.1719 19.8249 19.25 19.8561 19.3437C19.9499 19.375 20.0202 19.3594 20.0671 19.2969C20.1139 19.2187 20.1764 19.1719 20.2546 19.1562C20.3483 19.1875 20.403 19.2187 20.4186 19.25C20.4499 19.2656 20.5046 19.2578 20.5827 19.2266C20.5046 19.1016 20.4967 19.0312 20.5592 19.0156C20.6217 18.9844 20.6921 18.9531 20.7702 18.9219C20.8327 18.9375 20.8796 18.9062 20.9108 18.8281C20.9421 18.75 21.0202 18.7109 21.1452 18.7109C21.1921 18.6484 21.2546 18.5703 21.3327 18.4766C21.4264 18.3828 21.5202 18.375 21.6139 18.4531C21.7233 18.4062 21.778 18.375 21.778 18.3594C21.7936 18.3437 21.8249 18.3359 21.8717 18.3359C21.8874 18.2578 21.9342 18.1875 22.0124 18.125C22.1061 18.0469 22.2077 18.0234 22.3171 18.0547C22.3639 17.9766 22.4342 17.9453 22.528 17.9609C22.6217 17.9609 22.6921 17.9219 22.7389 17.8437C22.7546 17.9844 22.7233 18.0547 22.6452 18.0547C22.5671 18.0547 22.5046 18.0391 22.4577 18.0078C22.3639 18.0703 22.2936 18.1094 22.2467 18.125C22.2155 18.125 22.1999 18.1094 22.1999 18.0781C22.1842 18.1562 22.1452 18.2109 22.0827 18.2422C22.0202 18.2578 21.9967 18.3125 22.0124 18.4062C22.1374 18.4375 22.2233 18.4219 22.2702 18.3594C22.3171 18.2812 22.403 18.25 22.528 18.2656C22.3874 18.375 22.2936 18.4609 22.2467 18.5234C22.1999 18.5859 22.1217 18.625 22.0124 18.6406C21.8717 18.6406 21.7624 18.6797 21.6842 18.7578C21.6061 18.8203 21.528 18.8672 21.4499 18.8984C21.278 19.0078 21.0827 19.1016 20.8639 19.1797C20.6608 19.2422 20.4967 19.3437 20.3717 19.4844C20.2467 19.6094 20.1139 19.7031 19.9733 19.7656C19.8327 19.8281 19.7389 19.9453 19.6921 20.1172C20.0202 19.9922 20.3171 19.8516 20.5827 19.6953C20.8639 19.5391 21.1374 19.375 21.403 19.2031C21.5436 19.125 21.6608 19.0781 21.7546 19.0625C21.8483 19.0312 21.9421 19 22.0358 18.9687C22.1139 18.9062 22.2155 18.8437 22.3405 18.7812C22.4811 18.7031 22.6139 18.6328 22.7389 18.5703C22.8171 18.4141 22.8717 18.2656 22.903 18.125C22.9342 17.9844 22.8874 17.8672 22.7624 17.7734C22.8561 17.7734 22.903 17.7344 22.903 17.6562C22.9186 17.5625 22.8952 17.5 22.8327 17.4687C22.8796 17.4219 22.8952 17.375 22.8796 17.3281C22.8796 17.2656 22.8717 17.2109 22.8561 17.1641ZM21.4967 18.5937C21.4342 18.6719 21.3717 18.7031 21.3092 18.6875C21.2467 18.6562 21.2233 18.6875 21.2389 18.7812C21.3171 18.75 21.3717 18.7344 21.403 18.7344C21.4342 18.7187 21.4655 18.6719 21.4967 18.5937ZM9.42642 6.64062C9.3483 6.68749 9.26236 6.71874 9.16861 6.73437C9.09049 6.74999 9.06705 6.79687 9.0983 6.87499C9.1608 6.89062 9.21549 6.86718 9.26236 6.80468C9.32486 6.74218 9.37955 6.68749 9.42642 6.64062ZM12.0749 7.60156C11.6061 7.67968 11.1999 7.82812 10.8561 8.04687C10.5124 8.25 10.192 8.48437 9.89517 8.75C9.75455 8.82812 9.62955 8.91406 9.52017 9.00781C9.4108 9.08593 9.31705 9.1875 9.23892 9.3125C9.31705 9.3125 9.37174 9.28906 9.40299 9.24218C9.44986 9.17968 9.50455 9.13281 9.56705 9.10156C9.89517 8.97656 10.1452 8.84375 10.317 8.70312C10.5045 8.5625 10.7077 8.44531 10.9264 8.35156C11.0514 8.28906 11.153 8.23437 11.2311 8.1875C11.3092 8.14062 11.3952 8.08593 11.4889 8.02343C11.6139 7.94531 11.7311 7.89062 11.8405 7.85937C11.9655 7.81249 12.0436 7.72656 12.0749 7.60156ZM21.1921 18.9219C21.0983 18.8906 21.0202 18.875 20.9577 18.875C20.8952 18.8594 20.8717 18.8906 20.8874 18.9687C20.9655 19 21.0202 19.0078 21.0514 18.9922C21.0827 18.9609 21.1296 18.9375 21.1921 18.9219ZM20.2311 17.9141C20.1842 17.8828 20.1296 17.8828 20.0671 17.9141C20.0202 17.9453 19.9811 17.9766 19.9499 18.0078C19.9811 18.0234 20.028 18.0234 20.0905 18.0078C20.153 17.9766 20.1999 17.9453 20.2311 17.9141ZM12.1452 10.1328C12.1139 10.1172 12.067 10.0937 12.0045 10.0625C11.9577 10.0312 11.9108 10.0312 11.8639 10.0625C11.942 10.1406 12.0045 10.1875 12.0514 10.2031C12.1139 10.2031 12.1452 10.1797 12.1452 10.1328ZM10.2702 7.97656C10.0983 8.07031 9.9108 8.17187 9.70767 8.28125C9.50455 8.39062 9.36392 8.52343 9.2858 8.67968C9.4733 8.60156 9.64517 8.5 9.80142 8.375C9.95767 8.23437 10.1139 8.10156 10.2702 7.97656ZM11.9811 9.64062C11.8249 9.73437 11.6686 9.8125 11.5124 9.875C11.3561 9.9375 11.2155 10.0234 11.0905 10.1328C10.9342 10.1328 10.7936 10.1797 10.6686 10.2734C10.5436 10.3672 10.4967 10.4531 10.528 10.5312C10.7155 10.5 10.8561 10.4297 10.9499 10.3203C11.0436 10.2109 11.192 10.1641 11.3952 10.1797C11.4108 10.1016 11.4499 10.0469 11.5124 10.0156C11.5905 9.96875 11.6686 9.92968 11.7467 9.89843C11.8249 9.86718 11.8874 9.83593 11.9342 9.80468C11.9811 9.75781 11.9967 9.70312 11.9811 9.64062ZM11.3952 8.58593C10.9889 8.75781 10.6139 8.96875 10.2702 9.21875C9.92642 9.45312 9.58267 9.70312 9.23892 9.96875C9.36392 9.96875 9.4733 9.92187 9.56705 9.82812C9.6608 9.71875 9.79361 9.65625 9.96549 9.64062C10.1374 9.46875 10.317 9.29687 10.5045 9.125C10.692 8.95312 10.9186 8.85156 11.1842 8.82031C11.1686 8.74218 11.1999 8.70312 11.278 8.70312C11.3717 8.70312 11.4108 8.66406 11.3952 8.58593ZM12.192 10.7422C12.067 10.7422 11.9655 10.7734 11.8874 10.8359C11.8249 10.8828 11.7389 10.9141 11.6295 10.9297C11.6608 10.9922 11.6608 11.0391 11.6295 11.0703C11.5983 11.1016 11.6061 11.1406 11.653 11.1875C11.7467 11.1094 11.8639 11.0625 12.0045 11.0469C12.1452 11.0156 12.2077 10.9141 12.192 10.7422ZM22.9733 18.7109C22.9421 18.7266 22.8952 18.7266 22.8327 18.7109C22.7702 18.6953 22.7311 18.7031 22.7155 18.7344C22.653 18.8437 22.5983 18.8984 22.5514 18.8984C22.5202 18.8828 22.4967 18.8906 22.4811 18.9219C22.3717 19.0312 22.3405 19.0937 22.3874 19.1094C22.4342 19.1094 22.4655 19.1328 22.4811 19.1797C22.403 19.1641 22.3327 19.1719 22.2702 19.2031C22.2077 19.2187 22.153 19.2422 22.1061 19.2734C22.0592 19.2891 22.0046 19.3047 21.9421 19.3203C21.8952 19.3203 21.8405 19.3047 21.778 19.2734C21.7155 19.3359 21.6608 19.3984 21.6139 19.4609C21.5671 19.5234 21.4811 19.5547 21.3561 19.5547C21.3874 19.6016 21.3561 19.6406 21.2624 19.6719C21.1686 19.6875 21.0905 19.6875 21.028 19.6719C20.9967 19.7969 20.8952 19.8906 20.7233 19.9531C20.5514 20.0156 20.4342 20.0625 20.3717 20.0937C20.3717 20.1406 20.3483 20.1797 20.3014 20.2109C20.2546 20.2266 20.1999 20.25 20.1374 20.2812C20.0749 20.2969 20.0124 20.3203 19.9499 20.3516C19.903 20.3828 19.8874 20.4141 19.903 20.4453C19.8405 20.5391 19.7702 20.6016 19.6921 20.6328C19.6139 20.6484 19.5827 20.7109 19.5983 20.8203C19.8014 20.7734 19.9811 20.7031 20.1374 20.6094C20.3092 20.5 20.4655 20.3984 20.6061 20.3047C20.7624 20.1953 20.9186 20.1016 21.0749 20.0234C21.2467 19.9297 21.4264 19.8672 21.6139 19.8359C21.7702 19.7734 21.903 19.6797 22.0124 19.5547C22.1217 19.4297 22.2624 19.3828 22.4342 19.4141C22.2467 19.6172 22.0514 19.7344 21.8483 19.7656C21.9733 19.8125 22.0671 19.8203 22.1296 19.7891C22.1921 19.7422 22.2624 19.7422 22.3405 19.7891C22.1999 19.8203 22.0827 19.875 21.9889 19.9531C21.9108 20.0156 21.7936 20.0547 21.6374 20.0703C21.4967 19.9922 21.3952 19.9687 21.3327 20C21.2858 20.0312 21.2155 20.0391 21.1217 20.0234C21.0436 20.1328 20.9889 20.2031 20.9577 20.2344C20.9264 20.2656 20.8796 20.2734 20.8171 20.2578C20.7702 20.3516 20.6999 20.4219 20.6061 20.4687C20.528 20.5156 20.4655 20.5781 20.4186 20.6562C20.2624 20.6562 20.1608 20.6719 20.1139 20.7031C20.0827 20.7187 20.0436 20.7344 19.9967 20.75C19.9967 20.9062 19.9889 21 19.9733 21.0312C19.9733 21.0625 19.9499 21.0781 19.903 21.0781C19.7624 21.0156 19.6921 21 19.6921 21.0312C19.6921 21.0469 19.6686 21.0547 19.6217 21.0547C19.6217 21.2109 19.5983 21.3047 19.5514 21.3359C19.5202 21.3516 19.4889 21.375 19.4577 21.4062C19.3639 21.5156 19.2858 21.6016 19.2233 21.6641C19.1608 21.7109 19.1374 21.7578 19.153 21.8047C19.2624 21.7734 19.3483 21.7266 19.4108 21.6641C19.4733 21.5859 19.5671 21.5625 19.6921 21.5937C20.2233 21.2656 20.7233 20.9609 21.1921 20.6797C21.3171 20.6484 21.4342 20.6016 21.5436 20.5391C21.653 20.4609 21.7936 20.4219 21.9655 20.4219C22.0749 20.2812 22.2077 20.1797 22.3639 20.1172C22.5202 20.0547 22.6374 19.9297 22.7155 19.7422C22.7155 19.7109 22.7624 19.6641 22.8561 19.6016C22.9499 19.5391 22.9655 19.4219 22.903 19.25C22.7936 19.2187 22.7233 19.2266 22.6921 19.2734C22.6764 19.3203 22.6374 19.3594 22.5749 19.3906C22.6842 19.1875 22.7233 19.0781 22.6921 19.0625C22.6608 19.0469 22.6452 19.0156 22.6452 18.9687C22.7389 18.9687 22.8249 18.9453 22.903 18.8984C22.9811 18.8516 23.0046 18.7891 22.9733 18.7109ZM12.0749 9.07812C11.6842 9.15625 11.3405 9.28906 11.0436 9.47656C10.7624 9.66406 10.4655 9.83593 10.153 9.99218C10.0592 10.1016 9.94205 10.1875 9.80142 10.25C9.6608 10.3125 9.55142 10.4062 9.4733 10.5312C9.39517 10.5781 9.31705 10.6172 9.23892 10.6484C9.17642 10.6797 9.13736 10.7422 9.12174 10.8359C9.55924 10.6016 9.96549 10.3516 10.3405 10.0859C10.7311 9.80468 11.1764 9.57812 11.6764 9.40625C11.7233 9.32812 11.8014 9.28906 11.9108 9.28906C12.0202 9.27343 12.0749 9.20312 12.0749 9.07812ZM22.4342 20.4687C22.2936 20.5 22.1452 20.5469 21.9889 20.6094C21.8483 20.6562 21.6764 20.6953 21.4733 20.7266C21.4108 20.8516 21.3171 20.9219 21.1921 20.9375C21.0827 20.9531 21.0046 21.0234 20.9577 21.1484C20.8952 21.2109 20.7858 21.2578 20.6296 21.2891C20.4733 21.3203 20.3561 21.375 20.278 21.4531C20.2155 21.5156 20.1686 21.5625 20.1374 21.5937C20.1217 21.6094 20.1061 21.6406 20.0905 21.6875C20.3092 21.5625 20.5358 21.4453 20.7702 21.3359C21.0202 21.2266 21.2624 21.1016 21.4967 20.9609C21.7311 20.8984 21.9108 20.8281 22.0358 20.75C22.1608 20.6562 22.2936 20.5625 22.4342 20.4687ZM12.1686 11.8203C12.153 11.8672 12.1061 11.8984 12.028 11.9141C11.9499 11.9141 11.9342 11.9453 11.9811 12.0078C12.0436 11.9609 12.1061 11.9297 12.1686 11.9141C12.2311 11.8984 12.2311 11.8672 12.1686 11.8203ZM11.5592 11.0937C11.4186 11.125 11.278 11.1797 11.1374 11.2578C11.0124 11.3359 10.9264 11.4219 10.8795 11.5156C10.9733 11.4219 11.0983 11.3672 11.2545 11.3516C11.4108 11.3203 11.5124 11.2344 11.5592 11.0937ZM11.8874 12.0547C11.8874 11.9922 11.8405 11.9687 11.7467 11.9844C11.6686 12 11.6295 12.0234 11.6295 12.0547C11.6608 12.0703 11.6999 12.0781 11.7467 12.0781C11.8092 12.0781 11.8561 12.0703 11.8874 12.0547ZM11.9577 10.2969C11.817 10.2344 11.7077 10.2578 11.6295 10.3672C11.3639 10.4453 11.1374 10.5547 10.9499 10.6953C10.7624 10.8359 10.5436 10.9453 10.2936 11.0234C10.1686 11.1484 10.028 11.2578 9.87174 11.3516C9.71549 11.4297 9.57486 11.5391 9.44986 11.6797C9.35611 11.7109 9.24674 11.7656 9.12174 11.8437C9.01236 11.9062 8.98892 11.9844 9.05142 12.0781C9.11392 12 9.18424 11.9453 9.26236 11.9141C9.35611 11.8672 9.44205 11.8203 9.52017 11.7734C9.52017 11.6641 9.56705 11.6172 9.6608 11.6328C9.75455 11.6484 9.8483 11.6328 9.94205 11.5859C10.0202 11.5234 10.0905 11.4375 10.153 11.3281C10.2311 11.2031 10.3405 11.1719 10.4811 11.2344C10.5905 11.0937 10.6452 11.0391 10.6452 11.0703C10.6608 11.1016 10.6842 11.1094 10.7155 11.0937C10.8092 11 10.8952 10.9687 10.9733 11C11.1139 10.8437 11.192 10.7656 11.2077 10.7656C11.3327 10.7344 11.442 10.6719 11.5358 10.5781C11.6295 10.4844 11.7624 10.4453 11.9342 10.4609L11.9577 10.2969ZM20.8171 21.8516C20.6139 21.8828 20.4186 21.9531 20.2311 22.0625C20.0592 22.1562 19.8717 22.2266 19.6686 22.2734C19.8717 22.4141 20.0827 22.4141 20.3014 22.2734C20.5202 22.1328 20.6921 21.9922 20.8171 21.8516ZM12.2155 11.2812C11.6374 11.5469 11.153 11.8125 10.7624 12.0781C10.3717 12.3437 9.94986 12.5781 9.49674 12.7812C9.37174 12.9844 9.16861 13.1328 8.88736 13.2266C8.90299 13.4297 8.93424 13.5234 8.98111 13.5078C9.02799 13.4766 9.07486 13.4375 9.12174 13.3906C9.16861 13.3437 9.20767 13.3047 9.23892 13.2734C9.2858 13.2266 9.3483 13.2109 9.42642 13.2266C9.67642 13.0391 9.93424 12.8672 10.1999 12.7109C10.4811 12.5547 10.7467 12.375 10.9967 12.1719C11.1061 12.1875 11.1842 12.1719 11.2311 12.125C11.278 12.0781 11.3327 12.0234 11.3952 11.9609C11.5358 11.8516 11.692 11.7656 11.8639 11.7031C12.0514 11.6406 12.1686 11.5 12.2155 11.2812ZM19.9967 21.7109C19.9342 21.7266 19.8874 21.7266 19.8561 21.7109C19.8405 21.6797 19.8014 21.6719 19.7389 21.6875C19.8171 21.7656 19.8717 21.8047 19.903 21.8047C19.9499 21.8047 19.9811 21.7734 19.9967 21.7109ZM10.0592 11.9844C9.96549 12.0469 9.8483 12.1094 9.70767 12.1719C9.58267 12.2344 9.51236 12.3125 9.49674 12.4062C9.59049 12.3281 9.69205 12.2734 9.80142 12.2422C9.92642 12.1953 10.0124 12.1094 10.0592 11.9844ZM19.5983 18.4062C19.5671 18.375 19.5202 18.3516 19.4577 18.3359C19.4108 18.3047 19.3796 18.2578 19.3639 18.1953C19.3952 18.1016 19.4421 18.0234 19.5046 17.9609C19.5671 17.8984 19.5905 17.7891 19.5749 17.6328C19.4655 17.6484 19.3717 17.6406 19.2936 17.6094C19.2311 17.5781 19.1921 17.5 19.1764 17.375C19.3327 17.3281 19.4499 17.2422 19.528 17.1172C19.4655 16.9922 19.4186 16.8828 19.3874 16.7891C19.3561 16.6797 19.3014 16.5625 19.2233 16.4375C19.1296 16.0312 18.9421 15.6641 18.6608 15.3359C18.3796 15.0078 18.1374 14.6797 17.9342 14.3516C17.8092 14.3203 17.7077 14.2734 17.6296 14.2109C17.5514 14.1484 17.4733 14.0781 17.3952 14C17.0046 13.9219 16.5983 13.8984 16.1764 13.9297C15.7702 13.9453 15.4108 13.9687 15.0983 14C14.8014 14.0781 14.4499 14.1328 14.0436 14.1641C13.653 14.1797 13.3249 14.2187 13.0592 14.2812C12.9655 14.2344 12.8639 14.2031 12.7545 14.1875C12.6452 14.1562 12.5514 14.1094 12.4733 14.0469C12.4108 14.125 12.3795 14.1953 12.3795 14.2578C12.3952 14.3047 12.4186 14.3359 12.4499 14.3516C12.4967 14.3203 12.567 14.3125 12.6608 14.3281C12.7545 14.3281 12.8405 14.3281 12.9186 14.3281C12.903 14.5625 12.8249 14.6719 12.6842 14.6562C12.6842 14.75 12.6374 14.8047 12.5436 14.8203C12.4655 14.8359 12.4108 14.875 12.3795 14.9375C12.3795 15.1406 12.4108 15.2734 12.4733 15.3359C12.5827 15.3047 12.653 15.2891 12.6842 15.2891C12.7311 15.2891 12.7624 15.3125 12.778 15.3594C12.6999 15.4062 12.6139 15.4141 12.5202 15.3828C12.4264 15.6328 12.3717 15.8672 12.3561 16.0859C12.3561 16.2891 12.3639 16.5 12.3795 16.7187C12.442 16.6719 12.5202 16.6562 12.6139 16.6719C12.7077 16.6875 12.7858 16.7344 12.8483 16.8125C12.8014 17 12.7311 17.125 12.6374 17.1875C12.5436 17.2344 12.4655 17.3125 12.403 17.4219C12.4342 17.5 12.4811 17.5469 12.5436 17.5625C12.6061 17.5625 12.6374 17.6094 12.6374 17.7031C12.5905 17.75 12.5358 17.8047 12.4733 17.8672C12.4108 17.9297 12.3639 18 12.3327 18.0781C12.3014 18.1406 12.2936 18.2109 12.3092 18.2891C12.3249 18.3672 12.3717 18.4453 12.4499 18.5234C12.4186 18.5859 12.3874 18.6406 12.3561 18.6875C12.3249 18.7187 12.3014 18.7656 12.2858 18.8281C12.3483 18.9062 12.3874 18.9766 12.403 19.0391C12.4186 19.1016 12.442 19.1641 12.4733 19.2266C12.3795 19.4141 12.317 19.4922 12.2858 19.4609C12.2545 19.4297 12.2389 19.4375 12.2389 19.4844C12.2545 19.5625 12.317 19.6016 12.4264 19.6016C12.5358 19.5859 12.6452 19.5859 12.7545 19.6016C12.8483 19.6641 12.8952 19.7266 12.8952 19.7891C12.9108 19.8516 12.8952 19.9141 12.8483 19.9766C12.8014 20.0234 12.7389 20.0703 12.6608 20.1172C12.5827 20.1484 12.5124 20.1797 12.4499 20.2109C12.4655 20.3047 12.4499 20.3672 12.403 20.3984C12.3717 20.4297 12.3717 20.4844 12.403 20.5625C12.4967 20.5781 12.5514 20.5547 12.567 20.4922C12.5827 20.4297 12.6217 20.3906 12.6842 20.375C12.6217 20.5625 12.5983 20.6797 12.6139 20.7266C12.6452 20.7578 12.6452 20.7891 12.6139 20.8203C12.4108 20.8047 12.3092 20.8359 12.3092 20.9141C12.3249 20.9922 12.3639 21.0391 12.4264 21.0547C12.5045 21.0547 12.5592 21.0781 12.5905 21.125C12.6217 21.25 12.5983 21.3359 12.5202 21.3828C12.4577 21.4141 12.4108 21.4766 12.3795 21.5703C12.3952 21.7891 12.4577 21.9687 12.567 22.1094C12.6764 22.2344 12.8014 22.3281 12.942 22.3906C13.0983 22.4531 13.2624 22.4922 13.4342 22.5078C13.6217 22.5078 13.7858 22.5 13.9264 22.4844C13.8952 22.5625 13.8561 22.6094 13.8092 22.625C13.778 22.6406 13.7545 22.6875 13.7389 22.7656C13.8952 22.8281 14.0436 22.8594 14.1842 22.8594C14.3249 22.8594 14.4577 22.8516 14.5827 22.8359C14.7077 22.8203 14.8405 22.8125 14.9811 22.8125C15.1217 22.8125 15.2858 22.8437 15.4733 22.9062C15.8327 22.7969 16.1686 22.7187 16.4811 22.6719C16.7936 22.6094 17.0905 22.5312 17.3717 22.4375C17.653 22.3281 17.903 22.1953 18.1217 22.0391C18.3561 21.8672 18.5436 21.6641 18.6842 21.4297C18.7936 21.2891 18.8796 21.2109 18.9421 21.1953C19.0046 21.1797 19.0202 21.125 18.9889 21.0312C18.8796 21.0469 18.778 21.0703 18.6842 21.1016C18.6061 21.1328 18.5202 21.1641 18.4264 21.1953C18.3483 21.1641 18.3327 21.0937 18.3796 20.9844C18.4264 20.8594 18.5046 20.8203 18.6139 20.8672C18.6452 20.7422 18.7077 20.6562 18.8014 20.6094C18.8952 20.5469 19.0046 20.5 19.1296 20.4687C19.2077 20.3906 19.2702 20.2969 19.3171 20.1875C19.3639 20.0781 19.3483 19.9609 19.2702 19.8359C19.3327 19.7578 19.3952 19.6797 19.4577 19.6016C19.5202 19.5234 19.5436 19.3984 19.528 19.2266C19.4967 19.1953 19.4499 19.1797 19.3874 19.1797C19.3249 19.1797 19.2936 19.1406 19.2936 19.0625C19.2936 19 19.3171 18.9531 19.3639 18.9219C19.4108 18.875 19.4577 18.8359 19.5046 18.8047C19.5514 18.7578 19.5827 18.7109 19.5983 18.6641C19.6296 18.6016 19.6296 18.5156 19.5983 18.4062ZM12.1217 12.2422C12.028 12.2109 11.9577 12.2109 11.9108 12.2422C11.8639 12.2578 11.7858 12.25 11.6764 12.2187C11.6139 12.3437 11.5592 12.4141 11.5124 12.4297C11.4811 12.4297 11.442 12.4141 11.3952 12.3828C10.9264 12.6797 10.5202 12.9453 10.1764 13.1797C9.8483 13.4141 9.52017 13.6641 9.19205 13.9297C9.12955 14.0391 9.05924 14.1016 8.98111 14.1172C8.90299 14.1172 8.86392 14.1719 8.86392 14.2812C9.0358 14.1875 9.1608 14.1094 9.23892 14.0469C9.31705 14.0469 9.37174 14.0312 9.40299 14C9.43424 13.9531 9.4733 13.9141 9.52017 13.8828C9.69205 13.8047 9.84049 13.7109 9.96549 13.6016C10.1061 13.4922 10.2389 13.3984 10.3639 13.3203C10.442 13.2578 10.528 13.2187 10.6217 13.2031C10.7155 13.1719 10.8092 13.1328 10.903 13.0859C11.028 13.0078 11.1374 12.9297 11.2311 12.8516C11.3405 12.7734 11.4577 12.7266 11.5827 12.7109C11.6608 12.6953 11.7467 12.6797 11.8405 12.6641C11.8561 12.5859 11.8874 12.5469 11.9342 12.5469C11.9811 12.5312 12.0202 12.5 12.0514 12.4531L12.1217 12.2422ZM12.1217 14.4219C12.0124 14.25 11.9264 14.1953 11.8639 14.2578C11.8014 14.3047 11.7467 14.3672 11.6999 14.4453C11.653 14.5078 11.5983 14.5703 11.5358 14.6328C11.4889 14.6953 11.4186 14.7266 11.3249 14.7266C11.2936 14.8203 11.2155 14.875 11.0905 14.8906C10.9811 14.8906 10.9186 14.9453 10.903 15.0547C11.1374 14.9766 11.3483 14.8828 11.5358 14.7734C11.7233 14.6641 11.9186 14.5469 12.1217 14.4219ZM11.9342 12.9922C11.8874 13.0234 11.817 13.0469 11.7233 13.0625C11.6452 13.0625 11.5905 13.0781 11.5592 13.1094C11.4342 13.1562 11.317 13.2109 11.2077 13.2734C11.0983 13.3359 11.0045 13.3984 10.9264 13.4609C10.8014 13.5547 10.6842 13.6328 10.5749 13.6953C10.4655 13.7422 10.3561 13.7969 10.2467 13.8594C9.91861 14.2187 9.52017 14.5312 9.05142 14.7969C8.9108 14.7656 8.83267 14.7891 8.81705 14.8672C8.80142 14.9297 8.80924 14.9844 8.84049 15.0312C9.02799 14.9844 9.19205 14.8906 9.33267 14.75C9.4733 14.6094 9.6608 14.5078 9.89517 14.4453C10.0202 14.3516 10.1452 14.2422 10.2702 14.1172C10.4108 13.9766 10.6139 13.8984 10.8795 13.8828C10.9264 13.7734 10.9967 13.6875 11.0905 13.625C11.1842 13.5469 11.278 13.4766 11.3717 13.4141C11.4811 13.3516 11.5827 13.2891 11.6764 13.2266C11.7858 13.1641 11.8717 13.0859 11.9342 12.9922ZM11.3249 15.125C11.278 15.1406 11.2311 15.1562 11.1842 15.1719C11.1374 15.1719 11.1061 15.2109 11.0905 15.2891C11.1374 15.2734 11.192 15.25 11.2545 15.2187C11.317 15.1875 11.3405 15.1562 11.3249 15.125ZM18.778 22.2734C18.5592 22.3516 18.3796 22.4453 18.2389 22.5547C18.0983 22.6641 17.9108 22.7344 17.6764 22.7656C17.6608 22.875 17.6999 22.9297 17.7936 22.9297C17.903 22.9141 17.9967 22.9062 18.0749 22.9062C18.1374 22.7969 18.2311 22.7187 18.3561 22.6719C18.4811 22.625 18.6061 22.5859 18.7311 22.5547C18.7311 22.4766 18.7311 22.4219 18.7311 22.3906C18.7467 22.3594 18.7624 22.3203 18.778 22.2734ZM11.9811 15.2891C11.9499 15.2734 11.9108 15.2969 11.8639 15.3594C11.817 15.4219 11.7467 15.4375 11.653 15.4062C11.6374 15.5156 11.5827 15.5937 11.4889 15.6406C11.3952 15.6719 11.3092 15.6641 11.2311 15.6172C11.2155 15.6953 11.153 15.7812 11.0436 15.875C10.9342 15.9531 10.8249 15.9687 10.7155 15.9219C10.6842 16.0625 10.5905 16.1562 10.4342 16.2031C10.2936 16.25 10.1686 16.2891 10.0592 16.3203C10.0749 16.3984 10.0202 16.4609 9.89517 16.5078C9.7858 16.5391 9.70767 16.5781 9.6608 16.625C9.61392 16.7031 9.55924 16.7578 9.49674 16.7891C9.44986 16.8203 9.39517 16.8516 9.33267 16.8828C9.2858 16.8984 9.23111 16.9062 9.16861 16.9062C9.12174 16.9062 9.06705 16.875 9.00455 16.8125C9.11392 16.6719 9.23111 16.5469 9.35611 16.4375C9.48111 16.3281 9.63736 16.2344 9.82486 16.1562C9.94986 16.0312 10.0905 15.9297 10.2467 15.8516C10.4186 15.7734 10.567 15.6719 10.692 15.5469C10.7389 15.5156 10.7936 15.5 10.8561 15.5C10.9342 15.4844 10.9655 15.4375 10.9499 15.3594C10.7467 15.3906 10.5592 15.4766 10.3874 15.6172C10.2311 15.7578 10.067 15.875 9.89517 15.9687C9.80142 16.0156 9.68424 16.0234 9.54361 15.9922C9.40299 15.9609 9.31705 15.8984 9.2858 15.8047C9.25455 15.6797 9.30142 15.5781 9.42642 15.5C9.56705 15.4062 9.67642 15.3516 9.75455 15.3359C9.81705 15.2422 9.88736 15.1719 9.96549 15.125C10.0592 15.0625 10.1374 14.9922 10.1999 14.9141C10.2936 14.9141 10.3717 14.8906 10.4342 14.8437C10.4967 14.7969 10.5514 14.75 10.5983 14.7031C10.6452 14.6406 10.6999 14.5937 10.7624 14.5625C10.8249 14.5312 10.9186 14.5234 11.0436 14.5391C11.4186 14.3203 11.7233 14.0781 11.9577 13.8125C11.5983 13.8906 11.3483 13.9922 11.2077 14.1172C11.0827 14.2266 10.903 14.2969 10.6686 14.3281C10.653 14.4375 10.5983 14.5078 10.5045 14.5391C10.4264 14.5547 10.3561 14.5781 10.2936 14.6094C10.1374 14.7187 9.98892 14.8437 9.8483 14.9844C9.70767 15.1094 9.57486 15.2266 9.44986 15.3359C9.19986 15.4453 8.98892 15.625 8.81705 15.875C8.87955 16.1406 8.88736 16.3672 8.84049 16.5547C8.79361 16.7422 8.80142 16.9766 8.86392 17.2578C9.0358 17.2109 9.17642 17.1875 9.2858 17.1875C9.39517 17.1875 9.48892 17.1641 9.56705 17.1172C9.70767 16.9766 9.84049 16.8594 9.96549 16.7656C10.1061 16.6719 10.2624 16.625 10.4342 16.625C10.528 16.5781 10.6139 16.5625 10.692 16.5781C10.7858 16.5937 10.817 16.5625 10.7858 16.4844C10.7389 16.4531 10.7389 16.4062 10.7858 16.3437C10.8483 16.2656 10.9186 16.25 10.9967 16.2969C11.1061 16.1875 11.2155 16.1094 11.3249 16.0625C11.4342 16.0156 11.528 15.9531 11.6061 15.875C11.7311 15.8437 11.8249 15.8047 11.8874 15.7578C11.9499 15.7109 11.9967 15.6641 12.028 15.6172C12.0749 15.5547 12.0983 15.5 12.0983 15.4531C12.0983 15.4062 12.0592 15.3516 11.9811 15.2891ZM12.0749 16.0156C11.8249 16.0781 11.6374 16.1328 11.5124 16.1797C11.3874 16.2109 11.2702 16.2734 11.1608 16.3672C11.0358 16.5078 10.9811 16.5859 10.9967 16.6016C11.028 16.6172 11.0358 16.6484 11.0202 16.6953C10.9264 16.7891 10.8249 16.8516 10.7155 16.8828C10.6217 16.9141 10.5436 16.8906 10.4811 16.8125C10.4967 16.9219 10.4499 16.9609 10.3405 16.9297C10.2467 16.8984 10.1842 16.9062 10.153 16.9531C10.1374 17.0781 10.0983 17.1328 10.0358 17.1172C9.9733 17.0859 9.9108 17.1016 9.8483 17.1641C9.7233 17.3203 9.56705 17.4297 9.37955 17.4922C9.20767 17.5547 9.07486 17.6484 8.98111 17.7734C9.02799 17.8984 9.0983 17.9375 9.19205 17.8906C9.2858 17.8437 9.37174 17.8125 9.44986 17.7969C9.49674 17.75 9.5358 17.7109 9.56705 17.6797C9.5983 17.6328 9.65299 17.5937 9.73111 17.5625C9.93424 17.4375 10.1139 17.3203 10.2702 17.2109C10.4264 17.0859 10.5983 17.0312 10.7858 17.0469C10.7702 16.9687 10.8014 16.9297 10.8795 16.9297C10.9733 16.9297 11.0514 16.9297 11.1139 16.9297C11.1295 16.8203 11.1842 16.7578 11.278 16.7422C11.3874 16.7266 11.442 16.6562 11.442 16.5312C11.5202 16.4375 11.5749 16.3906 11.6061 16.3906C11.6374 16.375 11.6608 16.3516 11.6764 16.3203C11.9733 16.2266 12.1061 16.125 12.0749 16.0156ZM11.2545 18.1016C11.2233 18.0703 11.192 18.0703 11.1608 18.1016C11.1295 18.1328 11.0749 18.1328 10.9967 18.1016C11.028 18.1641 11.0827 18.2031 11.1608 18.2187C11.2389 18.2187 11.2702 18.1797 11.2545 18.1016ZM12.0514 17.0937C11.8327 17.0312 11.6295 17.0234 11.442 17.0703C11.2545 17.1172 11.1217 17.2109 11.0436 17.3516C10.9655 17.3359 10.8795 17.3594 10.7858 17.4219C10.692 17.4687 10.5983 17.4766 10.5045 17.4453C10.3952 17.6016 10.3405 17.6953 10.3405 17.7266C10.3561 17.7422 10.3483 17.75 10.317 17.75C10.2389 17.7656 10.1764 17.7969 10.1295 17.8437C10.0827 17.875 10.0358 17.9062 9.98892 17.9375C9.94205 17.9687 9.89517 18 9.8483 18.0312C9.80142 18.0625 9.73892 18.0703 9.6608 18.0547C9.58267 18.1328 9.50455 18.1797 9.42642 18.1953C9.36392 18.3047 9.30142 18.3906 9.23892 18.4531C9.19205 18.5 9.12174 18.5 9.02799 18.4531C9.05924 18.5312 9.0358 18.6016 8.95767 18.6641C8.89517 18.7109 8.86392 18.7969 8.86392 18.9219C9.08267 18.8125 9.2858 18.6875 9.4733 18.5469C9.6608 18.4062 9.88736 18.2969 10.153 18.2187C10.1842 18.1406 10.2467 18.0781 10.3405 18.0312C10.4499 17.9844 10.5436 17.9687 10.6217 17.9844C10.8249 17.7969 11.0592 17.6484 11.3249 17.5391C11.5905 17.4141 11.8327 17.2656 12.0514 17.0937ZM11.6999 18.5937C11.5124 18.625 11.3874 18.6562 11.3249 18.6875C11.2624 18.7031 11.1999 18.7344 11.1374 18.7812C11.0905 18.8125 11.028 18.8516 10.9499 18.8984C10.8874 18.9297 10.817 18.9297 10.7389 18.8984C10.5358 19.0078 10.3639 19.1172 10.2233 19.2266C10.0983 19.3203 9.94205 19.3984 9.75455 19.4609C9.6608 19.6484 9.52799 19.7187 9.35611 19.6719C9.37174 19.7344 9.35611 19.7891 9.30924 19.8359C9.26236 19.8672 9.20767 19.8984 9.14517 19.9297C9.08267 19.9609 9.02017 20 8.95767 20.0469C8.9108 20.0937 8.87955 20.1484 8.86392 20.2109C8.9733 20.2109 9.06705 20.1562 9.14517 20.0469C9.23892 19.9219 9.3483 19.875 9.4733 19.9062C9.50455 19.8281 9.58267 19.7578 9.70767 19.6953C9.83267 19.6328 9.93424 19.6406 10.0124 19.7187C9.99674 19.6406 10.0124 19.5781 10.0592 19.5312C10.1217 19.4687 10.1842 19.4219 10.2467 19.3906C10.3249 19.3594 10.403 19.3359 10.4811 19.3203C10.5749 19.3047 10.653 19.2969 10.7155 19.2969C10.9186 19.1875 11.0749 19.0781 11.1842 18.9687C11.3092 18.8594 11.4577 18.7812 11.6295 18.7344L11.6999 18.5937ZM11.3952 19.3672C11.2702 19.5078 11.1295 19.5859 10.9733 19.6016C10.8327 19.6172 10.7311 19.6797 10.6686 19.7891C10.4655 19.8984 10.3014 19.9844 10.1764 20.0469C10.067 20.0937 10.0124 20.1641 10.0124 20.2578C10.1061 20.2891 10.192 20.2578 10.2702 20.1641C10.3639 20.0703 10.4577 20.0391 10.5514 20.0703C10.5983 19.9766 10.6686 19.9141 10.7624 19.8828C10.8561 19.8359 10.9655 19.7969 11.0905 19.7656C11.1217 19.75 11.1452 19.7187 11.1608 19.6719C11.192 19.625 11.2545 19.6172 11.3483 19.6484C11.3327 19.5859 11.3405 19.5469 11.3717 19.5312C11.4186 19.5 11.4264 19.4453 11.3952 19.3672ZM11.8405 21.3828C11.7311 21.3672 11.6452 21.3594 11.5827 21.3594C11.5358 21.3594 11.4811 21.3672 11.4186 21.3828C11.5436 21.5234 11.6217 21.5625 11.653 21.5C11.6842 21.4375 11.7467 21.3984 11.8405 21.3828ZM12.6374 22.7422C12.6217 22.7266 12.5827 22.6797 12.5202 22.6016C12.4577 22.5234 12.3874 22.4531 12.3092 22.3906C12.2311 22.3125 12.153 22.2578 12.0749 22.2266C12.0124 22.1953 11.9655 22.2109 11.9342 22.2734C11.9342 22.3984 11.9733 22.4609 12.0514 22.4609C12.1452 22.4609 12.192 22.5 12.192 22.5781C12.0827 22.6406 12.0045 22.6797 11.9577 22.6953C11.9108 22.6953 11.8952 22.7109 11.9108 22.7422C11.9889 22.7734 12.1139 22.7969 12.2858 22.8125C12.4733 22.8281 12.5905 22.8047 12.6374 22.7422ZM9.02799 19.2969C8.96549 19.1719 8.92642 19.1016 8.9108 19.0859C8.9108 19.0703 8.89517 19.0625 8.86392 19.0625C8.89517 19.125 8.89517 19.1797 8.86392 19.2266C8.8483 19.2734 8.85611 19.3203 8.88736 19.3672L9.02799 19.2969ZM11.8874 20.0234C11.528 20.1641 11.2233 20.2422 10.9733 20.2578C10.9733 20.3984 10.903 20.4766 10.7624 20.4922C10.6217 20.4922 10.5202 20.5156 10.4577 20.5625C10.4889 20.6875 10.403 20.7344 10.1999 20.7031C10.1686 20.8281 10.0905 20.9141 9.96549 20.9609C9.84049 20.9922 9.70767 21.0234 9.56705 21.0547C9.58267 21.1172 9.55924 21.1797 9.49674 21.2422C9.43424 21.2891 9.36392 21.3359 9.2858 21.3828C9.20767 21.4297 9.12955 21.4844 9.05142 21.5469C8.98892 21.6094 8.95767 21.6797 8.95767 21.7578C9.08267 21.7109 9.18424 21.6484 9.26236 21.5703C9.35611 21.4922 9.46549 21.4375 9.59049 21.4062C9.66861 21.2812 9.76236 21.2031 9.87174 21.1719C9.99674 21.1406 10.1217 21.1016 10.2467 21.0547C10.4499 20.9766 10.6452 20.8672 10.8327 20.7266C11.0202 20.5859 11.2077 20.4844 11.3952 20.4219C11.442 20.3281 11.528 20.2734 11.653 20.2578C11.778 20.2266 11.8561 20.1484 11.8874 20.0234ZM9.91861 20.1406C9.93424 20.2187 9.9108 20.2656 9.8483 20.2812C9.80142 20.2812 9.76236 20.3203 9.73111 20.3984C9.84049 20.4141 9.91861 20.3906 9.96549 20.3281C10.0124 20.25 9.99674 20.1875 9.91861 20.1406ZM9.68424 20.3984C9.35611 20.6328 9.09049 20.6016 8.88736 20.3047C8.87174 20.4453 8.85611 20.5703 8.84049 20.6797C8.84049 20.7734 8.85611 20.875 8.88736 20.9844C9.01236 20.9375 9.12174 20.8594 9.21549 20.75C9.32486 20.6406 9.44205 20.6172 9.56705 20.6797C9.55142 20.6016 9.56705 20.5547 9.61392 20.5391C9.67642 20.5234 9.69986 20.4766 9.68424 20.3984ZM11.9811 21.9922C11.7936 21.8672 11.6608 21.8437 11.5827 21.9219C11.5045 22 11.4186 22.0234 11.3249 21.9922C11.2467 22.1172 11.192 22.1719 11.1608 22.1562C11.1452 22.125 11.1217 22.1172 11.0905 22.1328C10.9499 22.2266 10.8483 22.2969 10.7858 22.3437C10.7389 22.3906 10.6842 22.4375 10.6217 22.4844C10.5592 22.5312 10.4967 22.5703 10.4342 22.6016C10.3717 22.6328 10.2936 22.6328 10.1999 22.6016C10.1374 22.6484 10.0827 22.6641 10.0358 22.6484C10.0045 22.6328 9.9733 22.6094 9.94205 22.5781C10.0202 22.4375 10.0905 22.3359 10.153 22.2734C10.2155 22.1953 10.3092 22.1641 10.4342 22.1797C10.5749 22.0547 10.7233 21.9687 10.8795 21.9219C11.0514 21.8594 11.2155 21.7656 11.3717 21.6406C11.2155 21.6406 11.0436 21.6641 10.8561 21.7109C10.6842 21.7422 10.5436 21.8203 10.4342 21.9453C10.278 22.0078 10.153 22.0859 10.0592 22.1797C9.96549 22.2734 9.82486 22.3281 9.63736 22.3437C9.55924 22.4844 9.4733 22.5547 9.37955 22.5547C9.30142 22.5547 9.24674 22.5781 9.21549 22.625C9.13736 22.6562 9.07486 22.6484 9.02799 22.6016C8.99674 22.5391 8.98111 22.4531 8.98111 22.3437C9.10611 22.2656 9.19205 22.2109 9.23892 22.1797C9.2858 22.1484 9.35611 22.125 9.44986 22.1094C9.60611 22.0312 9.66861 21.9844 9.63736 21.9687C9.62174 21.9531 9.62955 21.9375 9.6608 21.9219C9.80142 21.8437 9.87955 21.8125 9.89517 21.8281C9.92642 21.8437 9.96549 21.8516 10.0124 21.8516C10.0124 21.7734 10.0436 21.7266 10.1061 21.7109C10.1842 21.6953 10.2467 21.6953 10.2936 21.7109C10.2936 21.5703 10.3561 21.5 10.4811 21.5C10.6217 21.5 10.7233 21.4453 10.7858 21.3359C10.8483 21.3672 10.8952 21.375 10.9264 21.3594C10.9733 21.3281 11.0124 21.3047 11.0436 21.2891C11.0749 21.2578 11.1061 21.2344 11.1374 21.2187C11.1686 21.1875 11.2077 21.1875 11.2545 21.2187C11.2702 21.1406 11.3092 21.0937 11.3717 21.0781C11.4499 21.0469 11.5202 21.0547 11.5827 21.1016C11.6139 21.0078 11.6686 20.9453 11.7467 20.9141C11.8405 20.8672 11.8874 20.7812 11.8874 20.6562C11.6217 20.7187 11.3795 20.8125 11.1608 20.9375C10.9889 21.0156 10.8405 21.0859 10.7155 21.1484C10.6061 21.1953 10.4889 21.2344 10.3639 21.2656C10.1608 21.3594 10.028 21.4844 9.96549 21.6406C9.79361 21.625 9.65299 21.6797 9.54361 21.8047C9.44986 21.9297 9.34049 21.9922 9.21549 21.9922C9.09049 22.1641 8.93424 22.3047 8.74674 22.4141C8.57486 22.5078 8.44205 22.6641 8.3483 22.8828C8.44205 22.9453 8.52799 22.9766 8.60611 22.9766C8.68424 22.9609 8.80142 22.9531 8.95767 22.9531C9.0358 22.9375 9.12174 22.9219 9.21549 22.9062C9.32486 22.8906 9.41861 22.8828 9.49674 22.8828C9.60611 22.8984 9.71549 22.9219 9.82486 22.9531C9.93424 22.9687 10.0358 22.9766 10.1295 22.9766C10.1608 22.9609 10.1999 22.9453 10.2467 22.9297C10.2936 22.8984 10.3405 22.8828 10.3874 22.8828C10.5436 22.9141 10.7155 22.9141 10.903 22.8828C11.0905 22.8516 11.2624 22.8281 11.4186 22.8125C11.4967 22.7969 11.5749 22.8047 11.653 22.8359C11.7311 22.8516 11.8014 22.8203 11.8639 22.7422C11.7702 22.6641 11.6842 22.6328 11.6061 22.6484C11.528 22.6484 11.4889 22.6719 11.4889 22.7187C11.3483 22.6094 11.2858 22.5391 11.3014 22.5078C11.317 22.4766 11.3249 22.4297 11.3249 22.3672C11.5124 22.3203 11.5905 22.2891 11.5592 22.2734C11.5436 22.2422 11.5514 22.2109 11.5827 22.1797C11.6139 22.2422 11.6686 22.2734 11.7467 22.2734C11.8249 22.2578 11.8874 22.2266 11.9342 22.1797L11.9811 21.9922ZM22.4577 17C22.4108 16.9219 22.3639 16.9062 22.3171 16.9531C22.2858 16.9844 22.2467 17.0156 22.1999 17.0469C22.0749 17.1094 21.9577 17.1797 21.8483 17.2578C21.7546 17.3203 21.6764 17.2891 21.6139 17.1641C21.8796 17.1172 22.0671 17.0156 22.1764 16.8594H22.4342L22.4577 17ZM21.5671 17.2812C21.4889 17.375 21.4342 17.4297 21.403 17.4453C21.3717 17.4609 21.3405 17.4844 21.3092 17.5156C21.278 17.5312 21.2467 17.5469 21.2155 17.5625C21.1842 17.5781 21.1452 17.5703 21.0983 17.5391C21.1608 17.4609 21.2311 17.4141 21.3092 17.3984C21.403 17.3672 21.4889 17.3281 21.5671 17.2812ZM21.028 17.5625C20.9186 17.6719 20.8405 17.7344 20.7936 17.75C20.7467 17.75 20.7311 17.7266 20.7467 17.6797C20.8092 17.6641 20.8561 17.6406 20.8874 17.6094C20.9186 17.5781 20.9655 17.5625 21.028 17.5625Z" fill="#9E6E3D"/>
</svg>
