{
  "total_number_of_loans": 2,
  "loans": [
    {
      "loan_id": "4dba81f8-a7af-4676-a62a-c873d8c7ad6d",
      "owner": {
        "username": "wowiborrowbooks",
        "user_id": "fcb4adff-8ee9-45bd-beb2-9d3771792769"
      },
      "borrower": {
        "username": "wowilovebooks",
        "user_id": "3c48ecd4-d0bd-4171-a034-4444b768fbd8"
      },
      "owned_book": {
        "owned_book_id": "63d0555d-b98b-4a33-9215-12755f3fb6a1",
        "owner": {
          "user_id": "fcb4adff-8ee9-45bd-beb2-9d3771792769",
          "username": "wowiborrowbooks"
        },
        "book": {
          "book_id": "fb23ac00-fb25-4619-8954-3b62422e4b30",
          "title": "bim bam boum",
          "author_fname": "jane",
          "author_lname": "doe",
          "isbn": "9781234567891"
        },
        "status": "loaned"
      },
      "status": "return_requested",
      "starting_date": "2024-07-20",
      "ending_date": "2024-07-27",
      "created_at": "2024-07-20t14:32:02.064z",
      "updated_at": "2024-07-20t14:32:02.064z"
    },
    {
      "loan_id": "39ac4726-c5a9-416c-9dc0-34c6e9b61867",
      "owner": {
        "username": "wowilovebooks",
        "user_id": "3c48ecd4-d0bd-4171-a034-4444b768fbd8"
      },
      "borrower": {
        "username": "wowiborrowbooks",
        "user_id": "fcb4adff-8ee9-45bd-beb2-9d3771792769"
      },
      "owned_book": {
        "owned_book_id": "63d0555d-b98b-4a33-9215-12755f3fb6a1",
        "owner": {
          "user_id": "3c48ecd4-d0bd-4171-a034-4444b768fbd8",
          "username": "wowilovebooks"
        },
        "book": {
          "book_id": "b4755dc9-5dae-4058-b0cf-02dee4d257d6",
          "title": "Boum Bim Bam",
          "author_fname": "Jim",
          "author_lname": "Doe",
          "isbn": "9781234567891"
        }
      },
      "status": "return_requested",
      "starting_date": null,
      "ending_date": null,
      "created_at": "2024-07-20t14:32:02.064z",
      "updated_at": "2024-07-20t14:32:02.064z"
    }
  ]
}
